^C:\USERS\GVOZDEV\DESKTOP\CPLUSPLUSPORT\VAR2MANUAL\VAR2MANUAL\DEBUG\VAR2MANUAL.OBJ
/OUT:"C:\USERS\GVOZDEV\DESKTOP\CPLUSPLUSPORT\VAR2MANUAL\VAR2MANUAL\DEBUG\VAR2MANUAL.EXE" /INCREMENTAL /NOLOGO KERNEL32.LIB USER32.LIB GDI32.LIB WINSPOOL.LIB COMDLG32.LIB ADVAPI32.LIB SHELL32.LIB OLE32.LIB OLEAUT32.LIB UUID.LIB ODBC32.LIB ODBCCP32.LIB /MANIFEST /MANIFESTUAC:"level='asInvoker' uiAccess='false'" /manifest:embed /DEBUG:FASTLINK /PDB:"C:\USERS\GVOZDEV\DESKTOP\CPLUSPLUSPORT\VAR2MANUAL\VAR2MANUAL\DEBUG\VAR2MANUAL.PDB" /SUBSYSTEM:CONSOLE /TLBID:1 /DYNAMICBASE /NXCOMPAT /IMPLIB:"C:\USERS\GVOZDEV\DESKTOP\CPLUSPLUSPORT\VAR2MANUAL\VAR2MANUAL\DEBUG\VAR2MANUAL.LIB" /MACHINE:X86 DEBUG\VAR2MANUAL.OBJ
^C:\USERS\GVOZDEV\DESKTOP\CPLUSPLUSPORT\CPLUSPLUSPORT\VAR2MANUAL\VAR2MANUAL\DEBUG\VAR2MANUAL.OBJ
/OUT:"C:\USERS\GVOZDEV\DESKTOP\CPLUSPLUSPORT\CPLUSPLUSPORT\VAR2MANUAL\VAR2MANUAL\DEBUG\VAR2MANUAL.EXE" /INCREMENTAL /NOLOGO KERNEL32.LIB USER32.LIB GDI32.LIB WINSPOOL.LIB COMDLG32.LIB ADVAPI32.LIB SHELL32.LIB OLE32.LIB OLEAUT32.LIB UUID.LIB ODBC32.LIB ODBCCP32.LIB /MANIFEST /MANIFESTUAC:"level='asInvoker' uiAccess='false'" /manifest:embed /DEBUG:FASTLINK /PDB:"C:\USERS\GVOZDEV\DESKTOP\CPLUSPLUSPORT\CPLUSPLUSPORT\VAR2MANUAL\VAR2MANUAL\DEBUG\VAR2MANUAL.PDB" /SUBSYSTEM:CONSOLE /TLBID:1 /DYNAMICBASE /NXCOMPAT /IMPLIB:"C:\USERS\GVOZDEV\DESKTOP\CPLUSPLUSPORT\CPLUSPLUSPORT\VAR2MANUAL\VAR2MANUAL\DEBUG\VAR2MANUAL.LIB" /MACHINE:X86 DEBUG\VAR2MANUAL.OBJ
