^C:\USERS\GVOZDEV\DESKTOP\CPLUSPLUSPORT\CPLUSPLUSPORT\VAR1MANUAL\VAR1MANUAL\VAR1MANUAL.CPP
C:\USERS\GVOZDEV\DESKTOP\CPLUSPLUSPORT\CPLUSPLUSPORT\VAR1MANUAL\VAR1MANUAL\DEBUG\VC142.PDB
C:\USERS\GVOZDEV\DESKTOP\CPLUSPLUSPORT\CPLUSPLUSPORT\VAR1MANUAL\VAR1MANUAL\DEBUG\VC142.IDB
C:\USERS\GVOZDEV\DESKTOP\CPLUSPLUSPORT\CPLUSPLUSPORT\VAR1MANUAL\VAR1MANUAL\DEBUG\VAR1MANUAL.OBJ
